interactions:
- request:
    body: null
    headers:
      Accept:
      - '*/*'
      Accept-Encoding:
      - gzip, deflate
      Authorization:
      - Bearer 559a1eb08e249528c6d897ef407aedbb13fd8d73e0234bafc1
      Connection:
      - keep-alive
      Content-type:
      - application/json
      User-Agent:
      - python-requests/2.31.0
    method: GET
    uri: https://sandbox-api.paddle.com/adjustments?status=pending_approval
  response:
    body:
      string: '{"data":[{"id":"adj_01h9fk7y5yj1m9bcn270a6rs81","action":"refund","type":"partial","transaction_id":"txn_01h7n3a7g7h0qr49zt9ckgketd","subscription_id":"sub_01h7n3a88jwktex2tfjzahmn57","customer_id":"ctm_01h7mrr5j8rnawwzh9nschgp1v","reason":"Test
        Adjustment Reason","currency_code":"USD","status":"pending_approval","items":[{"id":"adjitm_01h9fk7y5yj1m9bcn2726rdepp","item_id":"txnitm_01h7n3a7jefxzqhpaw6hdc523q","type":"partial","amount":"100","proration":null,"totals":{"subtotal":"79","tax":"21","total":"100"}}],"totals":{"subtotal":"79","tax":"21","total":"100","fee":"3","earnings":"76","currency_code":"USD"},"payout_totals":{"subtotal":"79","tax":"21","total":"100","fee":"3","earnings":"76","currency_code":"USD"},"created_at":"2023-09-04T07:59:16.172081Z","updated_at":"2023-09-04T07:59:16.172081Z"}],"meta":{"request_id":"3e3cc0b8-ac0a-49a2-bec4-a2a322e5147c","pagination":{"per_page":10,"next":"https://sandbox-api.paddle.com/adjustments?after=adj_01h9fk7y5yj1m9bcn270a6rs81\u0026status=pending_approval","has_more":false,"estimated_total":1}}}'
    headers:
      CF-Cache-Status:
      - DYNAMIC
      CF-RAY:
      - 8014c2307932c1c1-BUD
      Cache-Control:
      - no-store, max-age=0
      Connection:
      - keep-alive
      Content-Security-Policy:
      - default-src 'none'; frame-ancestors 'none'; base-uri 'none'
      Content-Type:
      - application/json; charset=utf-8
      Cross-Origin-Embedder-Policy:
      - require-corp
      Cross-Origin-Opener-Policy:
      - same-origin
      Cross-Origin-Resource-Policy:
      - same-site
      Date:
      - Mon, 04 Sep 2023 08:10:53 GMT
      Permissions-Policy:
      - accelerometer=(),ambient-light-sensor=(),autoplay=(),battery=(),camera=(),display-capture=(),document-domain=(),encrypted-media=(),fullscreen=(),gamepad=(),geolocation=(),gyroscope=(),layout-animations=(self),legacy-image-formats=(self),magnetometer=(),microphone=(),midi=(),oversized-images=(self),payment=(),picture-in-picture=(),publickey-credentials-get=(),speaker-selection=(),sync-xhr=(self),unoptimized-images=(self),unsized-media=(self),usb=(),screen-wake-lock=(),web-share=(),xr-spatial-tracking=()
      Pragma:
      - no-cache
      Referrer-Policy:
      - no-referrer
      Request-Id:
      - 3e3cc0b8-ac0a-49a2-bec4-a2a322e5147c
      Server:
      - cloudflare
      Set-Cookie:
      - __cf_bm=OIAa1jyoiPUl91RpK5BMvMh2XuUgQ2Sm3sb1Xd5v.fA-1693815053-0-ASI2OXsbcJ/3EoDoQ+zHPk/YCTeWgQrwaMHw3I0Mvkl52Ao1mBY2kz4EKchHdOq2JUGvee/xpqiR+0mBv8Ze24k=;
        path=/; expires=Mon, 04-Sep-23 08:40:53 GMT; domain=.paddle.com; HttpOnly;
        Secure; SameSite=None
      Strict-Transport-Security:
      - max-age=31536000; includeSubDomains; preload
      Transfer-Encoding:
      - chunked
      X-Content-Type-Options:
      - nosniff
      X-Frame-Options:
      - deny
      X-Permitted-Cross-Domain-Policies:
      - none
      content-length:
      - '1038'
    status:
      code: 200
      message: OK
version: 1
